N =9
X =5858388
Y =2646314
H =98
X =5883476
Y =2645135
H =126
X =5891787
Y =2642524
H =134
X =5894816
Y =2632171
H =140
X =5888835
Y =2620226
H =129
X =5858154
Y =2620899
H =95
X =5850543
Y =2622076
H =105
X =5849300
Y =2634864
H =89
X =5858077
Y =2646482
H =99
